GA6.qmd
…
'The variables are time and treatment and sample id. There are 22 rows.'

[1] "The variables are time and treatment and sample id. There are 22 rows."

In the metadata object, replace the dpi with _dpi of the time variable and cathemerium with cath of the treatment variable.

meta |> mutate( time = sub(pattern = "10dpi", replacement = "10_dpi", x = time),

treatment = sub(pattern = "cathemerium", replacement = "catch", x = treatment) )

# A tibble: 22 × 3
   sample_id   time   treatment
   <chr>       <chr>  <chr>    
 1 ERR10802882 10_dpi catch    
 2 ERR10802875 10_dpi catch    
 3 ERR10802879 10_dpi catch    
 4 ERR10802883 10_dpi catch    
 5 ERR10802878 10_dpi control  
 6 ERR10802884 10_dpi control  
 7 ERR10802877 10_dpi control  
 8 ERR10802881 10_dpi control  
 9 ERR10802876 10_dpi relictum 
10 ERR10802880 10_dpi relictum 
# ℹ 12 more rows
Data wrangling:

List all the datasets available in the ggplot2 package. Read the data from inbuilt- dataset midwest. Save it as an object midwest_datasets and use the midwest_datasets to answer all the question afterwards.

require(ggplot2)
data(package = "ggplot2")
midwest_datasets <- ggplot2::midwest

'For check:'

[1] "For check:"

midwest_datasets

# A tibble: 437 × 28
     PID county  state  area poptotal popdensity popwhite popblack popamerindian
   <int> <chr>   <chr> <dbl>    <int>      <dbl>    <int>    <int>         <int>
 1   561 ADAMS   IL    0.052    66090      1271.    63917     1702            98
 2   562 ALEXAN… IL    0.014    10626       759      7054     3496            19
 3   563 BOND    IL    0.022    14991       681.    14477      429            35
 4   564 BOONE   IL    0.017    30806      1812.    29344      127            46
 5   565 BROWN   IL    0.018     5836       324.     5264      547            14
 6   566 BUREAU  IL    0.05     35688       714.    35157       50            65
 7   567 CALHOUN IL    0.017     5322       313.     5298        1             8
 8   568 CARROLL IL    0.027    16805       622.    16519      111            30
 9   569 CASS    IL    0.024    13437       560.    13384       16             8
10   570 CHAMPA… IL    0.058   173025      2983.   146506    16559           331
# ℹ 427 more rows
# ℹ 19 more variables: popasian <int>, popother <int>, percwhite <dbl>,
#   percblack <dbl>, percamerindan <dbl>, percasian <dbl>, percother <dbl>,
#   popadults <int>, perchsd <dbl>, percollege <dbl>, percprof <dbl>,
#   poppovertyknown <int>, percpovertyknown <dbl>, percbelowpoverty <dbl>,
#   percchildbelowpovert <dbl>, percadultpoverty <dbl>,
#   percelderlypoverty <dbl>, inmetro <int>, category <chr>

Filter the rows with poptotal > 30000 and popdensity > 800.

midwest_datasets |>

filter(poptotal > 30000, popdensity > 800)

# A tibble: 234 × 28
     PID county  state  area poptotal popdensity popwhite popblack popamerindian
   <int> <chr>   <chr> <dbl>    <int>      <dbl>    <int>    <int>         <int>
 1   561 ADAMS   IL    0.052    66090      1271.    63917     1702            98
 2   564 BOONE   IL    0.017    30806      1812.    29344      127            46
 3   570 CHAMPA… IL    0.058   173025      2983.   146506    16559           331
 4   571 CHRIST… IL    0.042    34418       819.    34176       82            51
 5   574 CLINTON IL    0.029    33944      1170.    32688     1021            48
 6   575 COLES   IL    0.03     51644      1721.    50177      925            92
 7   576 COOK    IL    0.058  5105067     88018.  3204947  1317147         10289
 8   579 DE KALB IL    0.038    77932      2051.    72968     2069           123
 9   582 DU PAGE IL    0.02    781666     39083.   714905    15462           962
10   585 EFFING… IL    0.028    31704      1132.    31523       12            45
# ℹ 224 more rows
# ℹ 19 more variables: popasian <int>, popother <int>, percwhite <dbl>,
#   percblack <dbl>, percamerindan <dbl>, percasian <dbl>, percother <dbl>,
#   popadults <int>, perchsd <dbl>, percollege <dbl>, percprof <dbl>,
#   poppovertyknown <int>, percpovertyknown <dbl>, percbelowpoverty <dbl>,
#   percchildbelowpovert <dbl>, percadultpoverty <dbl>,
#   percelderlypoverty <dbl>, inmetro <int>, category <chr>
Select first 11 variables of the dataset. Create a new column named asian_ameri in midwest_datasetsobject by dividing popasian by popamerindian and sort asian_ameri in descending order. Save this output as new_dataset object

require(dplyr)

new_dataset <- midwest_datasets |>

select(1:11) |>

mutate(asian_ameri = popasian / popamerindian) |>

arrange(desc(asian_ameri))

new_dataset

# A tibble: 437 × 12
     PID county  state  area poptotal popdensity popwhite popblack popamerindian
   <int> <chr>   <chr> <dbl>    <int>      <dbl>    <int>    <int>         <int>
 1   582 DU PAGE IL    0.02    781666     39083.   714905    15462           962
 2   570 CHAMPA… IL    0.058   173025      2983.   146506    16559           331
 3   599 JACKSON IL    0.036    61067      1696.    51991     6342           109
 4   576 COOK    IL    0.058  5105067     88018.  3204947  1317147         10289
 5   741 TIPPEC… IN    0.03    130598      4353.   122013     2660           320
 6   579 DE KALB IL    0.038    77932      2051.    72968     2069           123
 7   715 MONROE  IN    0.024   108978      4541.   102752     2835           216
 8   615 MCDONO… IL    0.034    35244      1037.    32992     1254            65
 9  1277 WASHTE… MI    0.041   282937      6901.   236390    31720          1076
10   609 LAKE    IL    0.028   516418     18444.   450666    34771          1198
# ℹ 427 more rows
# ℹ 3 more variables: popasian <int>, popother <int>, asian_ameri <dbl>
…
